…
# What is mean total number of steps taken per day? 

1. Calculate the total number of steps taken per day

```{r}
activityData %>% 
  filter(!is.na(steps)) %>%
  group_by(date) %>%
  summarise(totalSteps = sum(steps)) 
```

```
# A tibble: 53 x 2
         date totalSteps
       <date>      <int>
 1 2012-10-02        126
 2 2012-10-03      11352
 3 2012-10-04      12116
 4 2012-10-05      13294
 5 2012-10-06      15420
 6 2012-10-07      11015
 7 2012-10-09      12811
 8 2012-10-10       9900
 9 2012-10-11      10304
10 2012-10-12      17382
# ... with 43 more rows
```
…
3. Calculate and report the mean and median of the total number of steps taken per day

```{r}
activityData %>% 
  filter(!is.na(steps)) %>%
  group_by(date) %>%
  summarise(totalSteps = sum(steps)) %>%
  mutate(meanStep = mean(totalSteps), 
         medianStep = median(totalSteps))
```

```
# A tibble: 53 x 4
         date totalSteps meanStep medianStep
       <date>      <int>    <dbl>      <int>
 1 2012-10-02        126 10766.19      10765
 2 2012-10-03      11352 10766.19      10765
 3 2012-10-04      12116 10766.19      10765
 4 2012-10-05      13294 10766.19      10765
 5 2012-10-06      15420 10766.19      10765
 6 2012-10-07      11015 10766.19      10765
 7 2012-10-09      12811 10766.19      10765
 8 2012-10-10       9900 10766.19      10765
 9 2012-10-11      10304 10766.19      10765
10 2012-10-12      17382 10766.19      10765
# ... with 43 more rows
```
…
5. Calculate and report the mean and median of the total number of steps taken per day

```{r}
activityDataImpute %>% 
  filter(!is.na(steps)) %>%
  group_by(date) %>%
  summarise(totalSteps = sum(steps)) %>%
  mutate(meanStep = mean(totalSteps), 
         medianStep = median(totalSteps))
```
```
# A tibble: 61 x 4
         date totalSteps meanStep medianStep
       <date>      <dbl>    <dbl>      <dbl>
 1 2012-10-01   10766.19 10766.19   10766.19
 2 2012-10-02     126.00 10766.19   10766.19
 3 2012-10-03   11352.00 10766.19   10766.19
 4 2012-10-04   12116.00 10766.19   10766.19
 5 2012-10-05   13294.00 10766.19   10766.19
 6 2012-10-06   15420.00 10766.19   10766.19
 7 2012-10-07   11015.00 10766.19   10766.19
 8 2012-10-08   10766.19 10766.19   10766.19
 9 2012-10-09   12811.00 10766.19   10766.19
10 2012-10-10    9900.00 10766.19   10766.19
# ... with 51 more rows
```
…
